module sse-services

go 1.18

require (
	github.com/go-chi/chi/v5 v5.0.8
	github.com/go-chi/cors v1.2.1
	github.com/google/uuid v1.3.0
	github.com/rabbitmq/amqp091-go v1.5.0
	github.com/rs/zerolog v1.29.0
)

require (
	github.com/mattn/go-colorable v0.1.12 // indirect
	github.com/mattn/go-isatty v0.0.14 // indirect
	golang.org/x/sys v0.0.0-20210927094055-39ccf1dd6fa6 // indirect
)
